모델명,기준요금,위도,경도
A001,BASIC,37.314939,126.837567
A002,BASIC,37.32486,126.842002
A003,BASIC,37.317076,126.844848
A004,PREMIUM,37.321855,126.845189
A005,BASIC,37.309719,126.835207
A006,PREMIUM,37.323642,126.840053
A007,BASIC,37.323933,126.839177
A008,BASIC,37.312874,126.832312
A009,BASIC,37.32315,126.824905
A010,PREMIUM,37.310966,126.830041
A011,PREMIUM,37.308063,126.826254
A012,BASIC,37.317158,126.842444
A013,BASIC,37.315163,126.835549
A014,BASIC,37.321144,126.846818
A015,BASIC,37.318698,126.846239
A016,PREMIUM,37.326443,126.846664
A017,PREMIUM,37.311331,126.835838
A018,BASIC,37.307931,126.830996
A019,BASIC,37.31663,126.830702
A020,BASIC,37.318977,126.831896
A021,BASIC,37.309286,126.843983
A022,PREMIUM,37.309607,126.846352
A023,BASIC,37.321921,126.844086
A024,BASIC,37.310339,126.847901
A025,BASIC,37.320481,126.83422
A026,PREMIUM,37.310065,126.844828
A027,BASIC,37.320751,126.826059
A028,PREMIUM,37.322069,126.846285
A029,BASIC,37.313782,126.837762
A030,BASIC,37.317582,126.829862
A031,PREMIUM,37.323658,126.836044
A032,PREMIUM,37.307885,126.84462
A033,PREMIUM,37.321549,126.827098
A034,PREMIUM,37.319372,126.82643
A035,BASIC,37.320441,126.833934
A036,PREMIUM,37.323416,126.845376
A037,BASIC,37.315692,126.834857
A038,PREMIUM,37.315305,126.847268
A039,PREMIUM,37.314809,126.839504
A040,PREMIUM,37.323597,126.842456
A041,PREMIUM,37.325421,126.830952
A042,BASIC,37.314751,126.844527
A043,BASIC,37.326655,126.840616
A044,PREMIUM,37.324645,126.83887
A045,BASIC,37.307186,126.831504
A046,BASIC,37.321171,126.837946
A047,BASIC,37.30854,126.832167
A048,PREMIUM,37.318826,126.833766
A049,BASIC,37.309736,126.843558
A050,BASIC,37.314331,126.845918
A051,BASIC,37.308604,126.841965
A052,BASIC,37.323506,126.828251
A053,BASIC,37.31587,126.846546
A054,PREMIUM,37.311608,126.846152
A055,PREMIUM,37.320927,126.845688
A056,PREMIUM,37.321466,126.825237
A057,BASIC,37.321645,126.82697
A058,PREMIUM,37.30688,126.825136
A059,PREMIUM,37.316397,126.832968
A060,PREMIUM,37.310664,126.832915
A061,BASIC,37.317036,126.838475
A062,PREMIUM,37.311914,126.841756
A063,PREMIUM,37.311544,126.847804
A064,BASIC,37.322334,126.830336
A065,BASIC,37.313466,126.825953
A066,PREMIUM,37.309931,126.844546
A067,BASIC,37.322955,126.838519
A068,PREMIUM,37.317412,126.833002
A069,PREMIUM,37.308014,126.834558
A070,BASIC,37.318045,126.834819
A071,PREMIUM,37.307455,126.836735
A072,BASIC,37.313503,126.824791
A073,PREMIUM,37.31679,126.833029
A074,BASIC,37.314983,126.836382
A075,PREMIUM,37.316429,126.840483
A076,BASIC,37.31924,126.831851
A077,BASIC,37.32137,126.824756
A078,PREMIUM,37.325055,126.846873
A079,PREMIUM,37.319335,126.824922
A080,BASIC,37.327076,126.824559
A081,PREMIUM,37.316634,126.846659
A082,BASIC,37.325291,126.846975
A083,PREMIUM,37.31192,126.845163
A084,PREMIUM,37.314575,126.827761
A085,BASIC,37.317747,126.834583
A086,PREMIUM,37.319772,126.847836
A087,BASIC,37.313055,126.839477
A088,BASIC,37.309874,126.845044
A089,PREMIUM,37.320007,126.824004
A090,PREMIUM,37.313764,126.844205
A091,PREMIUM,37.326508,126.831981
A092,BASIC,37.320684,126.834643
A093,PREMIUM,37.323787,126.845007
A094,PREMIUM,37.321678,126.827922
A095,BASIC,37.324867,126.829708
A096,PREMIUM,37.309175,126.847337
A097,BASIC,37.323907,126.828645
A098,PREMIUM,37.326867,126.834137
A099,BASIC,37.308853,126.844063
A100,PREMIUM,37.326213,126.828393
A101,BASIC,37.307553,126.84187
A102,BASIC,37.310942,126.827112
A103,PREMIUM,37.326349,126.824836
A104,PREMIUM,37.323496,126.838205
A105,BASIC,37.314086,126.840524
A106,BASIC,37.313008,126.833234
A107,PREMIUM,37.317611,126.837298
A108,PREMIUM,37.312358,126.836454
A109,PREMIUM,37.324813,126.824029
A110,BASIC,37.321046,126.846599
A111,PREMIUM,37.326908,126.829643
A112,PREMIUM,37.30982,126.838177
A113,PREMIUM,37.319739,126.833898
A114,BASIC,37.311453,126.846183
A115,PREMIUM,37.324836,126.83304
A116,BASIC,37.311774,126.827493
A117,PREMIUM,37.317799,126.845639
A118,BASIC,37.324584,126.842041
A119,PREMIUM,37.318015,126.833191
A120,BASIC,37.311462,126.846158
A121,BASIC,37.309488,126.840837
A122,BASIC,37.321402,126.844261
A123,PREMIUM,37.320946,126.83146
A124,PREMIUM,37.315199,126.830645
A125,PREMIUM,37.316401,126.82433
A126,BASIC,37.319972,126.831279
A127,BASIC,37.320327,126.842895
A128,BASIC,37.309357,126.830947
A129,BASIC,37.318809,126.830721
A130,PREMIUM,37.308932,126.83705
A131,BASIC,37.314583,126.825433
A132,PREMIUM,37.314511,126.838945
A133,BASIC,37.315196,126.831927
A134,BASIC,37.30847,126.830657
A135,PREMIUM,37.322939,126.824155
A136,PREMIUM,37.31508,126.832887
A137,BASIC,37.319932,126.839475
A138,BASIC,37.318105,126.826896
A139,PREMIUM,37.325795,126.842065
A140,BASIC,37.321592,126.828937
A141,PREMIUM,37.326204,126.847929
A142,PREMIUM,37.325588,126.836495
A143,PREMIUM,37.313982,126.8463
A144,BASIC,37.316188,126.833849
A145,PREMIUM,37.309128,126.843311
A146,BASIC,37.322896,126.838482
A147,BASIC,37.312825,126.826535
A148,BASIC,37.322827,126.824511
A149,PREMIUM,37.321913,126.827355
A150,PREMIUM,37.321015,126.827483
A151,PREMIUM,37.312338,126.825278
A152,BASIC,37.312772,126.826386
A153,BASIC,37.30679,126.840635
A154,BASIC,37.317315,126.836611
A155,BASIC,37.314684,126.838281
A156,BASIC,37.312053,126.83049
A157,BASIC,37.311774,126.829388
A158,BASIC,37.327053,126.83676
A159,PREMIUM,37.322572,126.832396
A160,PREMIUM,37.315312,126.839813
A161,PREMIUM,37.309045,126.824524
A162,PREMIUM,37.322688,126.8332
A163,BASIC,37.320511,126.833318
A164,BASIC,37.314336,126.830609
A165,PREMIUM,37.322687,126.824728
A166,PREMIUM,37.32077,126.829306
A167,PREMIUM,37.318429,126.829964
A168,PREMIUM,37.319474,126.837096
A169,BASIC,37.325731,126.840578
A170,PREMIUM,37.310317,126.830759
A171,PREMIUM,37.325759,126.842855
A172,BASIC,37.318176,126.82975
A173,BASIC,37.324582,126.834865
A174,BASIC,37.322726,126.82589
A175,BASIC,37.32467,126.845755
A176,BASIC,37.323362,126.838687
A177,BASIC,37.323038,126.836763
A178,PREMIUM,37.322373,126.837498
A179,PREMIUM,37.324691,126.835779
A180,BASIC,37.324268,126.833655
A181,PREMIUM,37.313553,126.839679
A182,BASIC,37.316267,126.831933
A183,PREMIUM,37.322652,126.829692
A184,BASIC,37.309296,126.837106
A185,PREMIUM,37.308514,126.841944
A186,BASIC,37.309815,126.83583
A187,PREMIUM,37.321541,126.842595
A188,BASIC,37.308039,126.825148
A189,BASIC,37.315522,126.836252
A190,PREMIUM,37.317678,126.84249
A191,PREMIUM,37.319637,126.842759
A192,PREMIUM,37.323306,126.836747
A193,PREMIUM,37.311179,126.841582
A194,BASIC,37.320658,126.835988
A195,BASIC,37.318584,126.82775
A196,BASIC,37.306522,126.842187
A197,BASIC,37.313443,126.8251
A198,BASIC,37.30956,126.839174
A199,PREMIUM,37.316774,126.830495
A200,BASIC,37.318288,126.8397
A201,BASIC,37.308202,126.834194
A202,BASIC,37.321643,126.837106
A203,BASIC,37.32369,126.832949
A204,PREMIUM,37.314013,126.841703
A205,PREMIUM,37.316661,126.827683
A206,PREMIUM,37.314446,126.847023
A207,BASIC,37.32634,126.846481
A208,BASIC,37.321255,126.839681
A209,PREMIUM,37.320212,126.830052
A210,PREMIUM,37.3133,126.833859
A211,PREMIUM,37.308506,126.828163
A212,BASIC,37.316644,126.830473
A213,BASIC,37.321731,126.831771
A214,PREMIUM,37.320062,126.838353
A215,BASIC,37.319521,126.83565
A216,BASIC,37.32106,126.825426
A217,BASIC,37.310682,126.842715
A218,BASIC,37.314039,126.834824
A219,BASIC,37.324697,126.829607
A220,PREMIUM,37.32008,126.84451
A221,BASIC,37.326971,126.836872
A222,PREMIUM,37.316939,126.847775
A223,PREMIUM,37.315711,126.834943
A224,BASIC,37.324082,126.825457
A225,PREMIUM,37.315877,126.835081
A226,PREMIUM,37.317172,126.82715
A227,PREMIUM,37.321422,126.833708
A228,BASIC,37.312587,126.833694
A229,PREMIUM,37.315312,126.825595
A230,PREMIUM,37.318266,126.835094
A231,BASIC,37.322265,126.84585
A232,PREMIUM,37.326367,126.837796
A233,BASIC,37.309921,126.833235
A234,PREMIUM,37.323553,126.840051
A235,PREMIUM,37.313429,126.845778
A236,BASIC,37.323896,126.84069
A237,BASIC,37.324535,126.844324
A238,PREMIUM,37.321963,126.83735
A239,PREMIUM,37.3238,126.834518
A240,PREMIUM,37.314377,126.837211
A241,PREMIUM,37.30752,126.829226
A242,PREMIUM,37.324906,126.831436
A243,PREMIUM,37.321891,126.829181
A244,PREMIUM,37.319263,126.834844
A245,BASIC,37.307754,126.846797
A246,BASIC,37.317705,126.846345
A247,BASIC,37.307617,126.83356
A248,BASIC,37.310643,126.837542
A249,BASIC,37.308095,126.843777
A250,BASIC,37.316629,126.831293
A251,PREMIUM,37.326124,126.836329
A252,BASIC,37.32298,126.839822
A253,PREMIUM,37.31082,126.838594
A254,PREMIUM,37.325,126.827522
A255,PREMIUM,37.306624,126.839682
A256,BASIC,37.312625,126.844236
A257,PREMIUM,37.321869,126.831977
A258,PREMIUM,37.319864,126.839459
A259,PREMIUM,37.326145,126.840981
A260,BASIC,37.322082,126.847431
A261,BASIC,37.316473,126.837034
A262,BASIC,37.315247,126.835654
A263,PREMIUM,37.315258,126.845238
A264,PREMIUM,37.309891,126.826263
A265,PREMIUM,37.306757,126.843772
A266,PREMIUM,37.325244,126.839225
A267,PREMIUM,37.322051,126.831788
A268,BASIC,37.316979,126.83454
A269,BASIC,37.317928,126.844924
A270,PREMIUM,37.311989,126.825625
A271,PREMIUM,37.320391,126.830194
A272,BASIC,37.326027,126.841817
A273,BASIC,37.307925,126.825688
A274,BASIC,37.326446,126.843728
A275,PREMIUM,37.307676,126.846388
A276,PREMIUM,37.317488,126.835556
A277,PREMIUM,37.31509,126.831169
A278,PREMIUM,37.309566,126.844747
A279,BASIC,37.313464,126.824029
A280,PREMIUM,37.323676,126.839678
A281,BASIC,37.309017,126.841775
A282,BASIC,37.313313,126.84197
A283,BASIC,37.309061,126.839749
A284,BASIC,37.310846,126.844015
A285,BASIC,37.325892,126.840838
A286,PREMIUM,37.318297,126.834694
A287,BASIC,37.308205,126.83314
A288,BASIC,37.326566,126.830093
A289,BASIC,37.315547,126.825483
A290,BASIC,37.311857,126.825087
A291,BASIC,37.308391,126.841976
A292,PREMIUM,37.318144,126.845501
A293,BASIC,37.307425,126.845655
A294,PREMIUM,37.30829,126.839013
A295,BASIC,37.325797,126.836348
A296,PREMIUM,37.3172,126.839989
A297,PREMIUM,37.308876,126.837455
A298,BASIC,37.316777,126.833747
A299,BASIC,37.32185,126.844275
A300,BASIC,37.311679,126.824746
A301,PREMIUM,37.315254,126.845868
A302,PREMIUM,37.310544,126.833438
A303,BASIC,37.307226,126.830769
A304,PREMIUM,37.312498,126.842732
A305,BASIC,37.318169,126.833585
A306,BASIC,37.321143,126.837653
A307,PREMIUM,37.322645,126.832681
A308,BASIC,37.320255,126.841212
A309,BASIC,37.312062,126.835821
A310,PREMIUM,37.324566,126.827103
A311,BASIC,37.307344,126.838902
A312,BASIC,37.325744,126.831309
A313,BASIC,37.324514,126.832279
A314,PREMIUM,37.320858,126.837302
A315,BASIC,37.322029,126.840961
A316,PREMIUM,37.325065,126.839126
A317,PREMIUM,37.311293,126.833856
A318,PREMIUM,37.306694,126.844771
A319,BASIC,37.314255,126.825944
A320,PREMIUM,37.31251,126.836308
A321,BASIC,37.324407,126.829194
A322,PREMIUM,37.306555,126.829758
A323,PREMIUM,37.309259,126.829121
A324,PREMIUM,37.32493,126.843386
A325,PREMIUM,37.313307,126.837304
A326,BASIC,37.32012,126.82614
A327,BASIC,37.326374,126.847025
A328,PREMIUM,37.316661,126.82613
A329,BASIC,37.316342,126.828506
A330,PREMIUM,37.30772,126.833727
A331,PREMIUM,37.32545,126.838079
A332,PREMIUM,37.312959,126.831946
A333,PREMIUM,37.312385,126.832653
A334,PREMIUM,37.306955,126.834403
A335,BASIC,37.321395,126.835803
A336,PREMIUM,37.311437,126.837571
A337,BASIC,37.316939,126.837922
A338,BASIC,37.312693,126.843843
A339,BASIC,37.325409,126.838857
A340,PREMIUM,37.310692,126.845551
A341,BASIC,37.326326,126.830707
A342,BASIC,37.30872,126.83586
A343,PREMIUM,37.319045,126.826915
A344,BASIC,37.319314,126.841155
A345,PREMIUM,37.322539,126.825495
A346,PREMIUM,37.3221,126.845827
A347,PREMIUM,37.318778,126.836199
A348,BASIC,37.312382,126.844427
A349,BASIC,37.320695,126.825624
A350,PREMIUM,37.321802,126.828441
A351,PREMIUM,37.307275,126.839109
A352,PREMIUM,37.314176,126.838074
A353,PREMIUM,37.325595,126.842626
A354,BASIC,37.320785,126.834148
A355,BASIC,37.32188,126.843711
A356,BASIC,37.320088,126.847159
A357,BASIC,37.325074,126.834451
A358,PREMIUM,37.326627,126.835421
A359,PREMIUM,37.326471,126.830336
A360,BASIC,37.326631,126.825005
A361,BASIC,37.315101,126.827303
A362,BASIC,37.322307,126.8258
A363,PREMIUM,37.325732,126.828708
A364,BASIC,37.314806,126.82566
A365,BASIC,37.319,126.841673
A366,BASIC,37.325063,126.831372
A367,PREMIUM,37.316259,126.833788
A368,BASIC,37.319851,126.841398
A369,PREMIUM,37.308612,126.838218
A370,BASIC,37.315273,126.83736
A371,BASIC,37.312631,126.841263
A372,PREMIUM,37.307998,126.828588
A373,PREMIUM,37.309097,126.839196
A374,PREMIUM,37.32336,126.826647
A375,BASIC,37.325729,126.824106
A376,BASIC,37.315174,126.8292
A377,PREMIUM,37.312418,126.841373
A378,PREMIUM,37.309006,126.830415
A379,PREMIUM,37.316226,126.836295
A380,PREMIUM,37.310784,126.841345
A381,BASIC,37.31714,126.824565
A382,PREMIUM,37.312113,126.824308
A383,BASIC,37.322874,126.827413
A384,BASIC,37.323776,126.837836
A385,BASIC,37.315061,126.842068
A386,PREMIUM,37.307157,126.840869
A387,BASIC,37.319649,126.839928
A388,BASIC,37.307453,126.840577
A389,BASIC,37.31648,126.836381
A390,PREMIUM,37.312795,126.837622
A391,BASIC,37.319557,126.827615
A392,PREMIUM,37.317196,126.837346
A393,PREMIUM,37.315776,126.828561
A394,BASIC,37.321145,126.841243
A395,BASIC,37.319846,126.827345
A396,BASIC,37.31771,126.844841
A397,PREMIUM,37.326965,126.842333
A398,PREMIUM,37.325902,126.825673
A399,PREMIUM,37.31389,126.82807
A400,BASIC,37.324044,126.841033
A401,BASIC,37.315698,126.826836
A402,BASIC,37.315344,126.844958
A403,PREMIUM,37.319334,126.845117
A404,PREMIUM,37.308937,126.832229
A405,PREMIUM,37.31472,126.823971
A406,BASIC,37.322762,126.83951
A407,BASIC,37.315324,126.839225
A408,PREMIUM,37.322782,126.839657
A409,PREMIUM,37.319696,126.835767
A410,BASIC,37.326514,126.829852
A411,PREMIUM,37.322787,126.845189
A412,PREMIUM,37.310194,126.835916
A413,BASIC,37.323078,126.838227
A414,BASIC,37.310161,126.832534
A415,PREMIUM,37.314874,126.839503
A416,BASIC,37.319901,126.846689
A417,BASIC,37.322549,126.847077
A418,PREMIUM,37.31903,126.841188
A419,BASIC,37.318886,126.835752
A420,PREMIUM,37.324558,126.845463
A421,PREMIUM,37.312549,126.843719
A422,BASIC,37.325092,126.830037
A423,BASIC,37.312319,126.84622
A424,BASIC,37.310191,126.835736
A425,PREMIUM,37.313851,126.82778
A426,BASIC,37.318638,126.837657
A427,BASIC,37.320203,126.83407
A428,BASIC,37.312569,126.845281
A429,PREMIUM,37.307609,126.845369
A430,PREMIUM,37.325578,126.84201
A431,PREMIUM,37.316304,126.840345
A432,PREMIUM,37.32417,126.824419
A433,BASIC,37.314915,126.834795
A434,BASIC,37.310609,126.846549
A435,BASIC,37.315921,126.843537
A436,BASIC,37.308872,126.827033
A437,PREMIUM,37.306583,126.830148
A438,PREMIUM,37.326327,126.82671
A439,BASIC,37.318296,126.839312
A440,PREMIUM,37.321221,126.846151
A441,BASIC,37.3078,126.846385
A442,BASIC,37.318714,126.845646
A443,PREMIUM,37.323449,126.826517
A444,PREMIUM,37.310341,126.839311
A445,PREMIUM,37.309106,126.839512
A446,BASIC,37.320207,126.834985
A447,BASIC,37.306962,126.839489
A448,PREMIUM,37.314674,126.839301
A449,PREMIUM,37.311419,126.825576
A450,BASIC,37.320207,126.845018
A451,PREMIUM,37.323494,126.823993
A452,BASIC,37.326834,126.826436
A453,PREMIUM,37.309188,126.832739
A454,PREMIUM,37.312158,126.843714
A455,PREMIUM,37.321413,126.839841
A456,BASIC,37.320108,126.847361
A457,BASIC,37.319393,126.84347
A458,BASIC,37.310873,126.824395
A459,PREMIUM,37.314256,126.844654
A460,BASIC,37.325932,126.835264
A461,BASIC,37.324192,126.830822
A462,PREMIUM,37.316854,126.827019
A463,PREMIUM,37.317995,126.834588
A464,BASIC,37.32048,126.842198
A465,BASIC,37.314336,126.840241
A466,PREMIUM,37.321388,126.836147
A467,BASIC,37.307377,126.825967
A468,BASIC,37.316288,126.826514
A469,PREMIUM,37.313339,126.828156
A470,BASIC,37.318201,126.832238
A471,BASIC,37.319487,126.827872
A472,PREMIUM,37.315642,126.84438
A473,PREMIUM,37.312383,126.841702
A474,PREMIUM,37.322592,126.831894
A475,PREMIUM,37.310361,126.838376
A476,PREMIUM,37.315722,126.829558
A477,PREMIUM,37.324074,126.843229
A478,PREMIUM,37.321684,126.830718
A479,BASIC,37.317298,126.829438
A480,BASIC,37.311591,126.843462
A481,PREMIUM,37.320772,126.824794
A482,BASIC,37.32546,126.827282
A483,BASIC,37.314433,126.843426
A484,BASIC,37.307639,126.832513
A485,PREMIUM,37.30689,126.842601
A486,BASIC,37.323747,126.844765
A487,PREMIUM,37.32303,126.845141
A488,PREMIUM,37.323093,126.83045
A489,PREMIUM,37.311744,126.846402
A490,BASIC,37.320214,126.841889
A491,BASIC,37.323677,126.846106
A492,PREMIUM,37.321672,126.843499
A493,PREMIUM,37.322672,126.833884
A494,BASIC,37.315184,126.841819
A495,BASIC,37.322368,126.835196
A496,BASIC,37.317235,126.844187
A497,PREMIUM,37.308484,126.827323
A498,BASIC,37.316981,126.826347
A499,BASIC,37.318253,126.835962
A500,PREMIUM,37.311747,126.838043
